…
``` r
trash_wheel = 
  read_excel("./Data/Trash-Wheel.xlsx", sheet = 1) 
```

    ## New names:
    ## * `` -> ...15
    ## * `` -> ...16
    ## * `` -> ...17

``` r
  trash_wheel
```

    ## # A tibble: 406 x 17
    ##    Dumpster Month  Year Date                `Weight (tons)`
    ##       <dbl> <chr> <dbl> <dttm>                        <dbl>
    ##  1        1 May    2014 2014-05-16 00:00:00            4.31
    ##  2        2 May    2014 2014-05-16 00:00:00            2.74
    ##  3        3 May    2014 2014-05-16 00:00:00            3.45
    ##  4        4 May    2014 2014-05-17 00:00:00            3.1 
    ##  5        5 May    2014 2014-05-17 00:00:00            4.06
    ##  6        6 May    2014 2014-05-20 00:00:00            2.71
    ##  7        7 May    2014 2014-05-21 00:00:00            1.91
    ##  8        8 May    2014 2014-05-28 00:00:00            3.7 
    ##  9       NA May …    NA NA                            26.0 
    ## 10        9 June   2014 2014-06-05 00:00:00            2.52
    ## # … with 396 more rows, and 12 more variables: `Volume (cubic
    ## #   yards)` <dbl>, `Plastic Bottles` <dbl>, Polystyrene <dbl>, `Cigarette
    ## #   Butts` <dbl>, `Glass Bottles` <dbl>, `Grocery Bags` <dbl>, `Chip
    ## #   Bags` <dbl>, `Sports Balls` <dbl>, `Homes Powered*` <dbl>,
    ## #   ...15 <chr>, ...16 <lgl>, ...17 <lgl>
…
